<?xml version="1.0" encoding="UTF-8" standalone="no"?>
<svg
   version="1.1"
   viewBox="0 0 128 128"
   id="svg13683"
   sodipodi:docname="assistance_boarding.svg"
   inkscape:version="1.2.2 (732a01da63, 2022-12-09, custom)"
   xml:space="preserve"
   xmlns:inkscape="http://www.inkscape.org/namespaces/inkscape"
   xmlns:sodipodi="http://sodipodi.sourceforge.net/DTD/sodipodi-0.dtd"
   xmlns="http://www.w3.org/2000/svg"
   xmlns:svg="http://www.w3.org/2000/svg"
   xmlns:i="http://ns.adobe.com/AdobeIllustrator/10.0/"><defs
     id="defs13687" /><sodipodi:namedview
     id="namedview13685"
     pagecolor="#ffffff"
     bordercolor="#000000"
     borderopacity="0.25"
     inkscape:showpageshadow="2"
     inkscape:pageopacity="0.0"
     inkscape:pagecheckerboard="true"
     inkscape:deskcolor="#d1d1d1"
     showgrid="false"
     inkscape:zoom="2.2565891"
     inkscape:cx="136.04604"
     inkscape:cy="91.509793"
     inkscape:window-width="1846"
     inkscape:window-height="1016"
     inkscape:window-x="74"
     inkscape:window-y="27"
     inkscape:window-maximized="1"
     inkscape:current-layer="g39472" /><g
     id="g39472"
     transform="translate(151.40752,99.92358)"><switch
       id="switch88677"
       transform="matrix(0.84759195,-0.22711158,0.22711158,0.84759195,-152.74447,-74.772565)"
       style="fill:#495aad;fill-opacity:1"><foreignObject
         requiredExtensions="http://ns.adobe.com/AdobeIllustrator/10.0/"
         x="0"
         y="0"
         width="1"
         height="1" /><g
         i:extraneous="self"
         id="g88675"
         style="fill:#495aad;fill-opacity:1"><g
           id="g88673"
           style="fill:#495aad;fill-opacity:1"><path
             d="m 53.1,43.6 c -0.8,-1.3 -2.3,-2.3 -4,-2.3 H 42 c -2.2,-2.8 -5.8,-7.2 -7.4,-8.6 -0.4,-0.3 -0.8,-0.6 -1.3,-0.8 l -7.9,-3.3 c -2,-0.8 -4.2,-0.8 -6.2,0.2 -1.9,0.9 -3.4,2.7 -4,4.7 L 9.3,52.1 c -0.7,2.1 -0.1,4.5 1.6,6 l 12.8,11.7 1.6,16.9 c 0.3,3 2.8,5.2 5.7,5.2 h 0.6 c 3.2,-0.3 5.5,-3.1 5.2,-6.3 L 35,66.6 c -0.1,-1.4 -0.8,-2.7 -1.8,-3.7 l -7.3,-6.7 5,-13.2 c 1.5,1.8 3.3,4 4.9,6.1 0.9,1.2 2.3,1.9 3.8,1.9 h 9.5 v 0 c 1.9,0 3.528706,-1.193498 4.3,-2.7 0.715417,-1.397363 0.506081,-3.390119 -0.3,-4.7 z"
             id="path88667"
             sodipodi:nodetypes="ssccccccccccscccccccscsss"
             style="fill:#495aad;fill-opacity:1" /><path
             d="M 32.8,28.3 C 38.4,28.3 43,23.7 43,18.1 43,12.5 38.4,8 32.8,8 27.2,8 22.6,12.6 22.6,18.2 c 0,5.6 4.6,10.1 10.2,10.1 z"
             id="path88669"
             style="fill:#495aad;fill-opacity:1" /><path
             d="m 11.5,63.9 -1.7,7.5 -6.6,12 c -1.5,2.8 -0.5,6.3 2.3,7.8 0.9,0.6 1.8,0.8 2.8,0.8 2,0 4,-1.1 5.1,-3 l 7,-12.7 c 0,-0.1 0.1,-0.1 0.1,-0.2 L 20,71.7 Z"
             id="path88671"
             style="fill:#495aad;fill-opacity:1" /></g></g></switch><g
       id="g14071"
       transform="matrix(0.13933162,0,0,0.13933162,-116.84865,-74.936419)"
       style="fill:#495aad;fill-opacity:1"><path
         d="m 305.2,442.4 c 29.121,-6.7188 54.32,-22.398 73.359,-44.238 l -15.68,-37.52 c -14,23.52 -37.52,41.441 -65.52,47.602 -55.438,12.879 -111.44,-21.844 -124.32,-77.844 -8.9609,-38.641 5.0391,-77.281 33.039,-101.36 l -1.1211,-42 c -51.52,29.68 -80.078,90.16 -66.078,151.2 17.359,74.48 91.84,120.96 166.32,104.16 z"
         id="path13985"
         style="fill:#495aad;fill-opacity:1" /><path
         d="m 286.16,131.04 h -18.48 c -10.078,0 -19.039,3.9219 -25.762,11.199 -6.7188,7.2812 -10.641,16.238 -10.078,26.32 l 2.2383,101.92 c 0,10.641 5.0391,20.719 14,27.441 8.3984,6.7188 19.602,8.9609 30.238,6.7188 l 82.324,-19.039 45.359,110.32 c 5.0391,11.762 17.359,17.922 29.121,15.121 1.1211,-0.55859 2.8008,-0.55859 3.9219,-1.1211 12.879,-5.6016 19.039,-20.16 14,-33.039 l -49.281,-119.84 c -7.2812,-17.359 -25.762,-26.879 -44.238,-22.961 l -33.043,6.7188 -1.6797,-40.879 8.9609,5.0391 c 5.0391,2.8008 10.641,3.3594 16.238,2.2383 l 40.879,-9.5195 c 12.32,-2.8008 20.16,-15.121 17.359,-28 -2.8008,-12.879 -15.121,-20.16 -28,-17.359 l -32.48,7.2812 c 0,0 -34.719,-19.602 -39.762,-22.398 -3.918,-1.6836 -13.438,-6.1641 -21.836,-6.1641 z"
         id="path13987"
         style="fill:#495aad;fill-opacity:1" /><path
         d="m 326.7,59.43 c 3.3633,28.258 -16.816,53.887 -45.07,57.25 -28.254,3.3633 -53.887,-16.816 -57.25,-45.07 -3.3633,-28.254 16.816,-53.883 45.07,-57.246 28.254,-3.363 53.887,16.812 57.25,45.066"
         id="path13989"
         style="fill:#495aad;fill-opacity:1" /><path
         d="M 562.24,411.6 130.48,514.08 c -18.48,4.4805 -15.68,31.922 3.9219,31.922 h 431.76 c 8.9609,0 16.238,-7.2812 16.238,-16.238 l -0.004,-102.48 c -0.55859,-10.082 -10.078,-17.922 -20.16,-15.68 z"
         id="path13991"
         style="fill:#495aad;fill-opacity:1" /></g></g></svg>
