<?xml version="1.0" encoding="UTF-8" standalone="no"?>
<svg
   version="1.1"
   viewBox="0 0 128 128"
   id="svg21245"
   sodipodi:docname="Outdoor.svg"
   inkscape:version="1.2.2 (732a01da63, 2022-12-09, custom)"
   width="128"
   height="128"
   xml:space="preserve"
   xmlns:inkscape="http://www.inkscape.org/namespaces/inkscape"
   xmlns:sodipodi="http://sodipodi.sourceforge.net/DTD/sodipodi-0.dtd"
   xmlns="http://www.w3.org/2000/svg"
   xmlns:svg="http://www.w3.org/2000/svg"><defs
     id="defs21249"><filter
       id="mask-powermask-path-effect24812_inverse"
       inkscape:label="filtermask-powermask-path-effect24812"
       style="color-interpolation-filters:sRGB"
       height="100"
       width="100"
       x="-50"
       y="-50"><feColorMatrix
         id="mask-powermask-path-effect24812_primitive1"
         values="1"
         type="saturate"
         result="fbSourceGraphic" /><feColorMatrix
         id="mask-powermask-path-effect24812_primitive2"
         values="-1 0 0 0 1 0 -1 0 0 1 0 0 -1 0 1 0 0 0 1 0 "
         in="fbSourceGraphic" /></filter><mask
       maskUnits="userSpaceOnUse"
       id="mask24818"><path
         d="m 108.57011,84.504906 c 0,15.624344 -12.666211,28.290554 -28.290554,28.290554 -15.624344,0 -28.290555,-12.66621 -28.290555,-28.290554 0,-15.624343 12.666211,-28.290555 28.290555,-28.290555 15.624343,0 28.290554,12.666212 28.290554,28.290555"
         fill="#529add"
         stroke-width="0.088408"
         id="path24820" /></mask><inkscape:path-effect
       effect="simplify"
       id="path-effect6058-3-2"
       is_visible="true"
       lpeversion="1"
       steps="1"
       threshold="0.00457143"
       smooth_angles="360"
       helper_size="0"
       simplify_individual_paths="false"
       simplify_just_coalesce="false" /><inkscape:path-effect
       effect="spiro"
       id="path-effect6060-5-6"
       is_visible="true"
       lpeversion="1" /><inkscape:path-effect
       effect="simplify"
       id="path-effect6066-62-1"
       is_visible="true"
       lpeversion="1"
       steps="1"
       threshold="0.00457143"
       smooth_angles="360"
       helper_size="0"
       simplify_individual_paths="false"
       simplify_just_coalesce="false" /><inkscape:path-effect
       effect="spiro"
       id="path-effect6068-9-8"
       is_visible="true"
       lpeversion="1" /><inkscape:path-effect
       effect="simplify"
       id="path-effect6066-6-1-7"
       is_visible="true"
       lpeversion="1"
       steps="1"
       threshold="0.00457143"
       smooth_angles="360"
       helper_size="0"
       simplify_individual_paths="false"
       simplify_just_coalesce="false" /><inkscape:path-effect
       effect="spiro"
       id="path-effect6068-7-2-9"
       is_visible="true"
       lpeversion="1" /><inkscape:path-effect
       effect="simplify"
       id="path-effect6058-2"
       is_visible="true"
       lpeversion="1"
       steps="1"
       threshold="0.00457143"
       smooth_angles="360"
       helper_size="0"
       simplify_individual_paths="false"
       simplify_just_coalesce="false" /><inkscape:path-effect
       effect="spiro"
       id="path-effect6060-0"
       is_visible="true"
       lpeversion="1" /><inkscape:path-effect
       effect="simplify"
       id="path-effect6066-2"
       is_visible="true"
       lpeversion="1"
       steps="1"
       threshold="0.00457143"
       smooth_angles="360"
       helper_size="0"
       simplify_individual_paths="false"
       simplify_just_coalesce="false" /><inkscape:path-effect
       effect="spiro"
       id="path-effect6068-3"
       is_visible="true"
       lpeversion="1" /><inkscape:path-effect
       effect="simplify"
       id="path-effect6066-6-7"
       is_visible="true"
       lpeversion="1"
       steps="1"
       threshold="0.00457143"
       smooth_angles="360"
       helper_size="0"
       simplify_individual_paths="false"
       simplify_just_coalesce="false" /><inkscape:path-effect
       effect="spiro"
       id="path-effect6068-7-5"
       is_visible="true"
       lpeversion="1" /><inkscape:path-effect
       effect="simplify"
       id="path-effect6058-3"
       is_visible="true"
       lpeversion="1"
       steps="1"
       threshold="0.00457143"
       smooth_angles="360"
       helper_size="0"
       simplify_individual_paths="false"
       simplify_just_coalesce="false" /><inkscape:path-effect
       effect="spiro"
       id="path-effect6060-5"
       is_visible="true"
       lpeversion="1" /><inkscape:path-effect
       effect="simplify"
       id="path-effect6066-62"
       is_visible="true"
       lpeversion="1"
       steps="1"
       threshold="0.00457143"
       smooth_angles="360"
       helper_size="0"
       simplify_individual_paths="false"
       simplify_just_coalesce="false" /><inkscape:path-effect
       effect="spiro"
       id="path-effect6068-9"
       is_visible="true"
       lpeversion="1" /><inkscape:path-effect
       effect="simplify"
       id="path-effect6066-6-1"
       is_visible="true"
       lpeversion="1"
       steps="1"
       threshold="0.00457143"
       smooth_angles="360"
       helper_size="0"
       simplify_individual_paths="false"
       simplify_just_coalesce="false" /><inkscape:path-effect
       effect="spiro"
       id="path-effect6068-7-2"
       is_visible="true"
       lpeversion="1" /><inkscape:path-effect
       effect="simplify"
       id="path-effect6058"
       is_visible="true"
       lpeversion="1"
       steps="1"
       threshold="0.00457143"
       smooth_angles="360"
       helper_size="0"
       simplify_individual_paths="false"
       simplify_just_coalesce="false" /><inkscape:path-effect
       effect="spiro"
       id="path-effect6060"
       is_visible="true"
       lpeversion="1" /><inkscape:path-effect
       effect="simplify"
       id="path-effect6066"
       is_visible="true"
       lpeversion="1"
       steps="1"
       threshold="0.00457143"
       smooth_angles="360"
       helper_size="0"
       simplify_individual_paths="false"
       simplify_just_coalesce="false" /><inkscape:path-effect
       effect="spiro"
       id="path-effect6068"
       is_visible="true"
       lpeversion="1" /><inkscape:path-effect
       effect="simplify"
       id="path-effect6066-6"
       is_visible="true"
       lpeversion="1"
       steps="1"
       threshold="0.00457143"
       smooth_angles="360"
       helper_size="0"
       simplify_individual_paths="false"
       simplify_just_coalesce="false" /><inkscape:path-effect
       effect="spiro"
       id="path-effect6068-7"
       is_visible="true"
       lpeversion="1" /><inkscape:path-effect
       effect="simplify"
       id="path-effect6066-6-7-7"
       is_visible="true"
       lpeversion="1"
       steps="1"
       threshold="0.00457143"
       smooth_angles="360"
       helper_size="0"
       simplify_individual_paths="false"
       simplify_just_coalesce="false" /><inkscape:path-effect
       effect="spiro"
       id="path-effect6068-7-5-6"
       is_visible="true"
       lpeversion="1" /><inkscape:path-effect
       effect="simplify"
       id="path-effect6066-2-7"
       is_visible="true"
       lpeversion="1"
       steps="1"
       threshold="0.00457143"
       smooth_angles="360"
       helper_size="0"
       simplify_individual_paths="false"
       simplify_just_coalesce="false" /><inkscape:path-effect
       effect="spiro"
       id="path-effect6068-3-3"
       is_visible="true"
       lpeversion="1" /><inkscape:path-effect
       effect="simplify"
       id="path-effect6058-39"
       is_visible="true"
       lpeversion="1"
       steps="1"
       threshold="0.00457143"
       smooth_angles="360"
       helper_size="0"
       simplify_individual_paths="false"
       simplify_just_coalesce="false" /><inkscape:path-effect
       effect="spiro"
       id="path-effect6060-4"
       is_visible="true"
       lpeversion="1" /><inkscape:path-effect
       effect="simplify"
       id="path-effect6066-62-6"
       is_visible="true"
       lpeversion="1"
       steps="1"
       threshold="0.00457143"
       smooth_angles="360"
       helper_size="0"
       simplify_individual_paths="false"
       simplify_just_coalesce="false" /><inkscape:path-effect
       effect="spiro"
       id="path-effect6068-9-7"
       is_visible="true"
       lpeversion="1" /><inkscape:path-effect
       effect="simplify"
       id="path-effect6066-6-1-5"
       is_visible="true"
       lpeversion="1"
       steps="1"
       threshold="0.00457143"
       smooth_angles="360"
       helper_size="0"
       simplify_individual_paths="false"
       simplify_just_coalesce="false" /><inkscape:path-effect
       effect="spiro"
       id="path-effect6068-7-2-3"
       is_visible="true"
       lpeversion="1" /><inkscape:path-effect
       effect="simplify"
       id="path-effect6066-6-7-7-5"
       is_visible="true"
       lpeversion="1"
       steps="1"
       threshold="0.00457143"
       smooth_angles="360"
       helper_size="0"
       simplify_individual_paths="false"
       simplify_just_coalesce="false" /><inkscape:path-effect
       effect="spiro"
       id="path-effect6068-7-5-6-6"
       is_visible="true"
       lpeversion="1" /><inkscape:path-effect
       effect="simplify"
       id="path-effect6066-2-7-2"
       is_visible="true"
       lpeversion="1"
       steps="1"
       threshold="0.00457143"
       smooth_angles="360"
       helper_size="0"
       simplify_individual_paths="false"
       simplify_just_coalesce="false" /><inkscape:path-effect
       effect="spiro"
       id="path-effect6068-3-3-9"
       is_visible="true"
       lpeversion="1" /><inkscape:path-effect
       effect="simplify"
       id="path-effect6058-39-1"
       is_visible="true"
       lpeversion="1"
       steps="1"
       threshold="0.00457143"
       smooth_angles="360"
       helper_size="0"
       simplify_individual_paths="false"
       simplify_just_coalesce="false" /><inkscape:path-effect
       effect="spiro"
       id="path-effect6060-4-2"
       is_visible="true"
       lpeversion="1" /><inkscape:path-effect
       effect="simplify"
       id="path-effect6058-7"
       is_visible="true"
       lpeversion="1"
       steps="1"
       threshold="0.00457143"
       smooth_angles="360"
       helper_size="0"
       simplify_individual_paths="false"
       simplify_just_coalesce="false" /><inkscape:path-effect
       effect="spiro"
       id="path-effect6060-09"
       is_visible="true"
       lpeversion="1" /><inkscape:path-effect
       effect="simplify"
       id="path-effect6066-3"
       is_visible="true"
       lpeversion="1"
       steps="1"
       threshold="0.00457143"
       smooth_angles="360"
       helper_size="0"
       simplify_individual_paths="false"
       simplify_just_coalesce="false" /><inkscape:path-effect
       effect="spiro"
       id="path-effect6068-6"
       is_visible="true"
       lpeversion="1" /><inkscape:path-effect
       effect="simplify"
       id="path-effect6066-6-0"
       is_visible="true"
       lpeversion="1"
       steps="1"
       threshold="0.00457143"
       smooth_angles="360"
       helper_size="0"
       simplify_individual_paths="false"
       simplify_just_coalesce="false" /><inkscape:path-effect
       effect="spiro"
       id="path-effect6068-7-6"
       is_visible="true"
       lpeversion="1" /><inkscape:path-effect
       effect="simplify"
       id="path-effect6066-6-7-2"
       is_visible="true"
       lpeversion="1"
       steps="1"
       threshold="0.00457143"
       smooth_angles="360"
       helper_size="0"
       simplify_individual_paths="false"
       simplify_just_coalesce="false" /><inkscape:path-effect
       effect="spiro"
       id="path-effect6068-7-5-61"
       is_visible="true"
       lpeversion="1" /><inkscape:path-effect
       effect="simplify"
       id="path-effect6066-2-8"
       is_visible="true"
       lpeversion="1"
       steps="1"
       threshold="0.00457143"
       smooth_angles="360"
       helper_size="0"
       simplify_individual_paths="false"
       simplify_just_coalesce="false" /><inkscape:path-effect
       effect="spiro"
       id="path-effect6068-3-7"
       is_visible="true"
       lpeversion="1" /><inkscape:path-effect
       effect="simplify"
       id="path-effect6058-2-9"
       is_visible="true"
       lpeversion="1"
       steps="1"
       threshold="0.00457143"
       smooth_angles="360"
       helper_size="0"
       simplify_individual_paths="false"
       simplify_just_coalesce="false" /><inkscape:path-effect
       effect="spiro"
       id="path-effect6060-0-2"
       is_visible="true"
       lpeversion="1" /></defs><sodipodi:namedview
     id="namedview21247"
     pagecolor="#ffffff"
     bordercolor="#000000"
     borderopacity="0.25"
     inkscape:showpageshadow="2"
     inkscape:pageopacity="0.0"
     inkscape:pagecheckerboard="true"
     inkscape:deskcolor="#d1d1d1"
     showgrid="false"
     inkscape:zoom="2.4163211"
     inkscape:cx="117.53405"
     inkscape:cy="20.485688"
     inkscape:window-width="2486"
     inkscape:window-height="1376"
     inkscape:window-x="74"
     inkscape:window-y="27"
     inkscape:window-maximized="1"
     inkscape:current-layer="svg21245"
     showguides="true" /><path
     d="M 128,64 C 128,99.346 99.346,128 64,128 28.654,128 0,99.346 0,64 0,28.654 28.654,0 64,0 c 35.346,0 64,28.654 64,64"
     fill="#529add"
     stroke-width="0.2"
     id="path21231" /><path
     d="M 128,64 C 128,99.346 99.346,128 64,128 28.654,128 0,99.346 0,64 0,28.654 28.654,0 64,0 c 35.346,0 64,28.654 64,64"
     fill="#529add"
     stroke-width="0.2"
     id="path21231-5" /><path
     d="M 128,64 C 128,99.346 99.346,128 64,128 28.654,128 0,99.346 0,64 0,28.654 28.654,0 64,0 c 35.346,0 64,28.654 64,64"
     fill="#529add"
     stroke-width="0.2"
     id="path21231-5-9" /><g
     aria-label="MAX"
     id="text46545"
     style="font-size:27.1454px;font-family:'DIN Alternate Medium';-inkscape-font-specification:'DIN Alternate Medium, ';fill:#ffffff;stroke:#ae153b;stroke-width:21.3191;stroke-linecap:round;stroke-linejoin:round" /><g
     id="g46790-7"
     transform="matrix(0.18597648,0,0,0.18597648,-1.1021768,17.309358)"
     style="fill:#427bb1;fill-opacity:1"><path
       d="m 371.84,364 h -43.121 c -31.359,0 -57.68,23.52 -61.602,54.32 l -6.1602,50.398 c -0.55859,6.7188 3.3594,12.879 10.078,14 25.199,5.6016 51.52,8.3984 79.52,8.3984 27.441,0 54.32,-2.8008 79.52,-8.3984 6.1602,-1.1211 10.641,-7.8398 10.078,-14 L 433.9926,418.32 C 429.5199,386.961 403.1996,364 371.8406,364 Z"
       id="path46217-3"
       style="fill:#427bb1;fill-opacity:1" /><path
       d="m 408.24,289.52 c 0,32.164 -26.074,58.242 -58.238,58.242 -32.164,0 -58.238,-26.078 -58.238,-58.242 0,-32.164 26.074,-58.238 58.238,-58.238 32.164,0 58.238,26.074 58.238,58.238"
       id="path46219-6"
       style="fill:#427bb1;fill-opacity:1" /><path
       d="m 604.8,257.6 -70.559,-54.32 -0.004,-98.562 c 0,-5.6016 -4.4805,-10.078 -10.078,-10.078 h -38.641 c -5.6016,0 -10.078,4.4805 -10.078,10.078 v 53.199 L 367.92,75.038 c -10.641,-8.3984 -25.199,-8.3984 -35.84,0 L 95.200093,257.598 c -12.879,10.078 -15.121,28.559 -5.0391,40.879 10.077997,12.879 28.558997,15.121 40.878997,5.0391 l 218.96,-168 218.96,168.56 c 5.6016,3.9219 11.762,6.1602 17.922,6.1602 8.9609,0 17.359,-3.9219 23.52,-11.199 9.5195,-12.879 7.2773,-31.359 -5.6016,-41.438 z"
       id="path46221-1"
       style="fill:#427bb1;fill-opacity:1" /></g><g
     id="g46790"
     transform="matrix(0.18597648,0,0,0.18597648,-1.1021768,13.309358)"
     style="fill:#fcfdfe;fill-opacity:1"><path
       d="m 371.84,364 h -43.121 c -31.359,0 -57.68,23.52 -61.602,54.32 l -6.1602,50.398 c -0.55859,6.7188 3.3594,12.879 10.078,14 25.199,5.6016 51.52,8.3984 79.52,8.3984 27.441,0 54.32,-2.8008 79.52,-8.3984 6.1602,-1.1211 10.641,-7.8398 10.078,-14 L 433.9926,418.32 C 429.5199,386.961 403.1996,364 371.8406,364 Z"
       id="path46217"
       style="fill:#fcfdfe;fill-opacity:1" /><path
       d="m 408.24,289.52 c 0,32.164 -26.074,58.242 -58.238,58.242 -32.164,0 -58.238,-26.078 -58.238,-58.242 0,-32.164 26.074,-58.238 58.238,-58.238 32.164,0 58.238,26.074 58.238,58.238"
       id="path46219"
       style="fill:#fcfdfe;fill-opacity:1" /><path
       d="m 604.8,257.6 -70.559,-54.32 -0.004,-98.562 c 0,-5.6016 -4.4805,-10.078 -10.078,-10.078 h -38.641 c -5.6016,0 -10.078,4.4805 -10.078,10.078 v 53.199 L 367.92,75.038 c -10.641,-8.3984 -25.199,-8.3984 -35.84,0 L 95.200093,257.598 c -12.879,10.078 -15.121,28.559 -5.0391,40.879 10.077997,12.879 28.558997,15.121 40.878997,5.0391 l 218.96,-168 218.96,168.56 c 5.6016,3.9219 11.762,6.1602 17.922,6.1602 8.9609,0 17.359,-3.9219 23.52,-11.199 9.5195,-12.879 7.2773,-31.359 -5.6016,-41.438 z"
       id="path46221"
       style="fill:#fcfdfe;fill-opacity:1" /></g></svg>
